…
Определим рабочие и нерабочие часы:

``` r
work_time <- df %>%
  filter(!grepl('^1[2-4].*', dst)) %>%
  mutate(timestamp = hour(as_datetime(timestamp / 1000))) %>% 
  group_by(timestamp) %>% 
  summarize(sum_bytes = sum(bytes)) %>% 
  arrange(desc(sum_bytes))

work_time %>% collect()
```

    # A tibble: 24 × 2
       timestamp   sum_bytes
           <int>       <dbl>
     1        23 82031837646
     2        16 81994628850
     3        18 81992814764
     4        21 81963711653
     5        22 81888013879
     6        19 81861371178
     7        20 81848190437
     8        17 81841962148
     9         7  3300183251
    10        12  3100273165
    # ℹ 14 more rows
…
